%YAML 1.1
%TAG !u! tag:unity3d.com,2011:
--- !u!74 &7400000
AnimationClip:
  m_ObjectHideFlags: 0
  m_CorrespondingSourceObject: {fileID: 0}
  m_PrefabInstance: {fileID: 0}
  m_PrefabAsset: {fileID: 0}
  m_Name: Sister_IdleRight_Animation
  serializedVersion: 6
  m_Legacy: 0
  m_Compressed: 0
  m_UseHighQualityCurve: 1
  m_RotationCurves: []
  m_CompressedRotationCurves: []
  m_EulerCurves: []
  m_PositionCurves: []
  m_ScaleCurves: []
  m_FloatCurves: []
  m_PPtrCurves:
  - curve:
    - time: 0
      value: {fileID: 21300000, guid: 766877aeb12ac584da2a26b1afdb6aea, type: 3}
    - time: 0.26666668
      value: {fileID: 21300000, guid: 1d58ba8f52dd61542b9268774eb72100, type: 3}
    - time: 0.51666665
      value: {fileID: 21300000, guid: 82dd2722b8032cd42821046627a95918, type: 3}
    - time: 0.8
      value: {fileID: 21300000, guid: 5472dab9343918d49a7f70faa44e07c2, type: 3}
    - time: 1.0333333
      value: {fileID: 21300000, guid: 6c9ac16ce9543d4488756f82090e7aaa, type: 3}
    - time: 1.3166667
      value: {fileID: 21300000, guid: 63109ab4d4a9b6a47afb33e9c89a98e7, type: 3}
    - time: 1.5666667
      value: {fileID: 21300000, guid: 20fbb2a9728c3564d9a8f9a561da99c9, type: 3}
    - time: 1.8333334
      value: {fileID: 21300000, guid: 03422fbf2e13bc342a7d885db67496ec, type: 3}
    attribute: m_Sprite
    path: 
    classID: 212
    script: {fileID: 0}
  m_SampleRate: 60
  m_WrapMode: 0
  m_Bounds:
    m_Center: {x: 0, y: 0, z: 0}
    m_Extent: {x: 0, y: 0, z: 0}
  m_ClipBindingConstant:
    genericBindings:
    - serializedVersion: 2
      path: 0
      attribute: 0
      script: {fileID: 0}
      typeID: 212
      customType: 23
      isPPtrCurve: 1
    pptrCurveMapping:
    - {fileID: 21300000, guid: 766877aeb12ac584da2a26b1afdb6aea, type: 3}
    - {fileID: 21300000, guid: 1d58ba8f52dd61542b9268774eb72100, type: 3}
    - {fileID: 21300000, guid: 82dd2722b8032cd42821046627a95918, type: 3}
    - {fileID: 21300000, guid: 5472dab9343918d49a7f70faa44e07c2, type: 3}
    - {fileID: 21300000, guid: 6c9ac16ce9543d4488756f82090e7aaa, type: 3}
    - {fileID: 21300000, guid: 63109ab4d4a9b6a47afb33e9c89a98e7, type: 3}
    - {fileID: 21300000, guid: 20fbb2a9728c3564d9a8f9a561da99c9, type: 3}
    - {fileID: 21300000, guid: 03422fbf2e13bc342a7d885db67496ec, type: 3}
  m_AnimationClipSettings:
    serializedVersion: 2
    m_AdditiveReferencePoseClip: {fileID: 0}
    m_AdditiveReferencePoseTime: 0
    m_StartTime: 0
    m_StopTime: 1.85
    m_OrientationOffsetY: 0
    m_Level: 0
    m_CycleOffset: 0
    m_HasAdditiveReferencePose: 0
    m_LoopTime: 1
    m_LoopBlend: 0
    m_LoopBlendOrientation: 0
    m_LoopBlendPositionY: 0
    m_LoopBlendPositionXZ: 0
    m_KeepOriginalOrientation: 0
    m_KeepOriginalPositionY: 1
    m_KeepOriginalPositionXZ: 0
    m_HeightFromFeet: 0
    m_Mirror: 0
  m_EditorCurves: []
  m_EulerEditorCurves: []
  m_HasGenericRootTransform: 0
  m_HasMotionFloatCurves: 0
  m_Events:
  - time: 0
    functionName: State_End_Hiding
    data: 
    objectReferenceParameter: {fileID: 0}
    floatParameter: 0
    intParameter: 0
    messageOptions: 0
