%YAML 1.1
%TAG !u! tag:unity3d.com,2011:
--- !u!74 &7400000
AnimationClip:
  m_ObjectHideFlags: 0
  m_CorrespondingSourceObject: {fileID: 0}
  m_PrefabInstance: {fileID: 0}
  m_PrefabAsset: {fileID: 0}
  m_Name: Crystal_Done_Right
  serializedVersion: 6
  m_Legacy: 0
  m_Compressed: 0
  m_UseHighQualityCurve: 1
  m_RotationCurves: []
  m_CompressedRotationCurves: []
  m_EulerCurves: []
  m_PositionCurves: []
  m_ScaleCurves: []
  m_FloatCurves:
  - curve:
      serializedVersion: 2
      m_Curve:
      - serializedVersion: 3
        time: 0
        value: 4
        inSlope: Infinity
        outSlope: Infinity
        tangentMode: 103
        weightedMode: 0
        inWeight: 0
        outWeight: 0
      - serializedVersion: 3
        time: 1.0166667
        value: 0
        inSlope: Infinity
        outSlope: Infinity
        tangentMode: 103
        weightedMode: 0
        inWeight: 0
        outWeight: 0
      m_PreInfinity: 2
      m_PostInfinity: 2
      m_RotationOrder: 4
    attribute: State
    path: 
    classID: 114
    script: {fileID: 11500000, guid: d3d66170c83e59b4396fd5240ad16bdf, type: 3}
  m_PPtrCurves:
  - curve:
    - time: 0
      value: {fileID: 21300000, guid: e1c624f7b3f86f44380ae931dd2e9b33, type: 3}
    - time: 0.11666667
      value: {fileID: 21300000, guid: c181ade38c4118542a8f45e1c0300150, type: 3}
    - time: 0.21666667
      value: {fileID: 21300000, guid: 6256378431c505d4daa419862f62b268, type: 3}
    - time: 0.33333334
      value: {fileID: 21300000, guid: f30a0df896cd23449be59d07f79e12c3, type: 3}
    - time: 0.45
      value: {fileID: 21300000, guid: f2f8defaae2cdc248b19a1536c7c5cb6, type: 3}
    - time: 0.55
      value: {fileID: 21300000, guid: 8c866a2fa567b12438f30642aa0385cc, type: 3}
    - time: 0.6666667
      value: {fileID: 21300000, guid: c27bf1cb46ce714448643e7fc32e1343, type: 3}
    - time: 0.78333336
      value: {fileID: 21300000, guid: a88373ec537fcc8469ddd828c5921958, type: 3}
    - time: 0.8833333
      value: {fileID: 21300000, guid: 7006fca2ca4abfc4bb0638eba53abf4c, type: 3}
    - time: 1
      value: {fileID: 21300000, guid: 89267aa4a5dfe284bafefa5823bf8ab6, type: 3}
    attribute: m_Sprite
    path: 
    classID: 212
    script: {fileID: 0}
  m_SampleRate: 60
  m_WrapMode: 0
  m_Bounds:
    m_Center: {x: 0, y: 0, z: 0}
    m_Extent: {x: 0, y: 0, z: 0}
  m_ClipBindingConstant:
    genericBindings:
    - serializedVersion: 2
      path: 0
      attribute: 1649606143
      script: {fileID: 11500000, guid: d3d66170c83e59b4396fd5240ad16bdf, type: 3}
      typeID: 114
      customType: 0
      isPPtrCurve: 0
    - serializedVersion: 2
      path: 0
      attribute: 0
      script: {fileID: 0}
      typeID: 212
      customType: 23
      isPPtrCurve: 1
    pptrCurveMapping:
    - {fileID: 21300000, guid: e1c624f7b3f86f44380ae931dd2e9b33, type: 3}
    - {fileID: 21300000, guid: c181ade38c4118542a8f45e1c0300150, type: 3}
    - {fileID: 21300000, guid: 6256378431c505d4daa419862f62b268, type: 3}
    - {fileID: 21300000, guid: f30a0df896cd23449be59d07f79e12c3, type: 3}
    - {fileID: 21300000, guid: f2f8defaae2cdc248b19a1536c7c5cb6, type: 3}
    - {fileID: 21300000, guid: 8c866a2fa567b12438f30642aa0385cc, type: 3}
    - {fileID: 21300000, guid: c27bf1cb46ce714448643e7fc32e1343, type: 3}
    - {fileID: 21300000, guid: a88373ec537fcc8469ddd828c5921958, type: 3}
    - {fileID: 21300000, guid: 7006fca2ca4abfc4bb0638eba53abf4c, type: 3}
    - {fileID: 21300000, guid: 89267aa4a5dfe284bafefa5823bf8ab6, type: 3}
  m_AnimationClipSettings:
    serializedVersion: 2
    m_AdditiveReferencePoseClip: {fileID: 0}
    m_AdditiveReferencePoseTime: 0
    m_StartTime: 0
    m_StopTime: 1.0166667
    m_OrientationOffsetY: 0
    m_Level: 0
    m_CycleOffset: 0
    m_HasAdditiveReferencePose: 0
    m_LoopTime: 0
    m_LoopBlend: 0
    m_LoopBlendOrientation: 0
    m_LoopBlendPositionY: 0
    m_LoopBlendPositionXZ: 0
    m_KeepOriginalOrientation: 0
    m_KeepOriginalPositionY: 1
    m_KeepOriginalPositionXZ: 0
    m_HeightFromFeet: 0
    m_Mirror: 0
  m_EditorCurves:
  - curve:
      serializedVersion: 2
      m_Curve:
      - serializedVersion: 3
        time: 0
        value: 4
        inSlope: Infinity
        outSlope: Infinity
        tangentMode: 103
        weightedMode: 0
        inWeight: 0
        outWeight: 0
      - serializedVersion: 3
        time: 1.0166667
        value: 0
        inSlope: Infinity
        outSlope: Infinity
        tangentMode: 103
        weightedMode: 0
        inWeight: 0
        outWeight: 0
      m_PreInfinity: 2
      m_PostInfinity: 2
      m_RotationOrder: 4
    attribute: State
    path: 
    classID: 114
    script: {fileID: 11500000, guid: d3d66170c83e59b4396fd5240ad16bdf, type: 3}
  m_EulerEditorCurves: []
  m_HasGenericRootTransform: 0
  m_HasMotionFloatCurves: 0
  m_Events:
  - time: 1
    functionName: Player_Return
    data: 
    objectReferenceParameter: {fileID: 0}
    floatParameter: 0
    intParameter: 0
    messageOptions: 0
