%YAML 1.1
%TAG !u! tag:unity3d.com,2011:
--- !u!74 &7400000
AnimationClip:
  m_ObjectHideFlags: 0
  m_CorrespondingSourceObject: {fileID: 0}
  m_PrefabInstance: {fileID: 0}
  m_PrefabAsset: {fileID: 0}
  m_Name: Sister_JumpRight_Animation
  serializedVersion: 6
  m_Legacy: 0
  m_Compressed: 0
  m_UseHighQualityCurve: 1
  m_RotationCurves: []
  m_CompressedRotationCurves: []
  m_EulerCurves: []
  m_PositionCurves: []
  m_ScaleCurves: []
  m_FloatCurves: []
  m_PPtrCurves:
  - curve:
    - time: 0
      value: {fileID: 21300000, guid: e81bb2cae75bf004792ca8b3f560c487, type: 3}
    - time: 0.083333336
      value: {fileID: 21300000, guid: 8f88e915507f5794aac99fc8982e88f0, type: 3}
    - time: 0.16666667
      value: {fileID: 21300000, guid: 9f7e141baa8c88d478658024c12d4bf4, type: 3}
    - time: 0.33333334
      value: {fileID: 21300000, guid: 5165dde651ea87248b79355f1e9523b1, type: 3}
    - time: 0.8333333
      value: {fileID: 21300000, guid: 618df399eb15cb648b0dc6d0d6e7e303, type: 3}
    - time: 1
      value: {fileID: 21300000, guid: 9648055cf8b91b449a28602ec117540d, type: 3}
    attribute: m_Sprite
    path: 
    classID: 212
    script: {fileID: 0}
  m_SampleRate: 60
  m_WrapMode: 0
  m_Bounds:
    m_Center: {x: 0, y: 0, z: 0}
    m_Extent: {x: 0, y: 0, z: 0}
  m_ClipBindingConstant:
    genericBindings:
    - serializedVersion: 2
      path: 0
      attribute: 0
      script: {fileID: 0}
      typeID: 212
      customType: 23
      isPPtrCurve: 1
    pptrCurveMapping:
    - {fileID: 21300000, guid: e81bb2cae75bf004792ca8b3f560c487, type: 3}
    - {fileID: 21300000, guid: 8f88e915507f5794aac99fc8982e88f0, type: 3}
    - {fileID: 21300000, guid: 9f7e141baa8c88d478658024c12d4bf4, type: 3}
    - {fileID: 21300000, guid: 5165dde651ea87248b79355f1e9523b1, type: 3}
    - {fileID: 21300000, guid: 618df399eb15cb648b0dc6d0d6e7e303, type: 3}
    - {fileID: 21300000, guid: 9648055cf8b91b449a28602ec117540d, type: 3}
  m_AnimationClipSettings:
    serializedVersion: 2
    m_AdditiveReferencePoseClip: {fileID: 0}
    m_AdditiveReferencePoseTime: 0
    m_StartTime: 0
    m_StopTime: 1.0166667
    m_OrientationOffsetY: 0
    m_Level: 0
    m_CycleOffset: 0
    m_HasAdditiveReferencePose: 0
    m_LoopTime: 0
    m_LoopBlend: 0
    m_LoopBlendOrientation: 0
    m_LoopBlendPositionY: 0
    m_LoopBlendPositionXZ: 0
    m_KeepOriginalOrientation: 0
    m_KeepOriginalPositionY: 1
    m_KeepOriginalPositionXZ: 0
    m_HeightFromFeet: 0
    m_Mirror: 0
  m_EditorCurves: []
  m_EulerEditorCurves: []
  m_HasGenericRootTransform: 0
  m_HasMotionFloatCurves: 0
  m_Events: []
