%YAML 1.1
%TAG !u! tag:unity3d.com,2011:
--- !u!1 &1555566671810128953
GameObject:
  m_ObjectHideFlags: 0
  m_CorrespondingSourceObject: {fileID: 0}
  m_PrefabInstance: {fileID: 0}
  m_PrefabAsset: {fileID: 0}
  serializedVersion: 6
  m_Component:
  - component: {fileID: 1555566671810128966}
  m_Layer: 9
  m_Name: Soldier_Manager
  m_TagString: Untagged
  m_Icon: {fileID: 0}
  m_NavMeshLayer: 0
  m_StaticEditorFlags: 0
  m_IsActive: 1
--- !u!4 &1555566671810128966
Transform:
  m_ObjectHideFlags: 0
  m_CorrespondingSourceObject: {fileID: 0}
  m_PrefabInstance: {fileID: 0}
  m_PrefabAsset: {fileID: 0}
  m_GameObject: {fileID: 1555566671810128953}
  m_LocalRotation: {x: 0, y: 0, z: 0, w: 1}
  m_LocalPosition: {x: 0, y: 0, z: 0}
  m_LocalScale: {x: 1, y: 1, z: 1}
  m_Children:
  - {fileID: 7846232695545683299}
  m_Father: {fileID: 0}
  m_RootOrder: 0
  m_LocalEulerAnglesHint: {x: 0, y: 0, z: 0}
--- !u!1001 &4794451659794094217
PrefabInstance:
  m_ObjectHideFlags: 0
  serializedVersion: 2
  m_Modification:
    m_TransformParent: {fileID: 1555566671810128966}
    m_Modifications:
    - target: {fileID: 3344551030493890027, guid: 9ad983a5a3ddcf446a33f3af7edd2d2f,
        type: 3}
      propertyPath: m_Name
      value: "\u58EB\u51752.0"
      objectReference: {fileID: 0}
    - target: {fileID: 3344551030493890026, guid: 9ad983a5a3ddcf446a33f3af7edd2d2f,
        type: 3}
      propertyPath: m_LocalPosition.x
      value: -1.592
      objectReference: {fileID: 0}
    - target: {fileID: 3344551030493890026, guid: 9ad983a5a3ddcf446a33f3af7edd2d2f,
        type: 3}
      propertyPath: m_LocalPosition.y
      value: 3.269
      objectReference: {fileID: 0}
    - target: {fileID: 3344551030493890026, guid: 9ad983a5a3ddcf446a33f3af7edd2d2f,
        type: 3}
      propertyPath: m_LocalPosition.z
      value: 0
      objectReference: {fileID: 0}
    - target: {fileID: 3344551030493890026, guid: 9ad983a5a3ddcf446a33f3af7edd2d2f,
        type: 3}
      propertyPath: m_LocalRotation.x
      value: 0
      objectReference: {fileID: 0}
    - target: {fileID: 3344551030493890026, guid: 9ad983a5a3ddcf446a33f3af7edd2d2f,
        type: 3}
      propertyPath: m_LocalRotation.y
      value: 0
      objectReference: {fileID: 0}
    - target: {fileID: 3344551030493890026, guid: 9ad983a5a3ddcf446a33f3af7edd2d2f,
        type: 3}
      propertyPath: m_LocalRotation.z
      value: 0
      objectReference: {fileID: 0}
    - target: {fileID: 3344551030493890026, guid: 9ad983a5a3ddcf446a33f3af7edd2d2f,
        type: 3}
      propertyPath: m_LocalRotation.w
      value: 1
      objectReference: {fileID: 0}
    - target: {fileID: 3344551030493890026, guid: 9ad983a5a3ddcf446a33f3af7edd2d2f,
        type: 3}
      propertyPath: m_RootOrder
      value: 0
      objectReference: {fileID: 0}
    - target: {fileID: 3344551030493890026, guid: 9ad983a5a3ddcf446a33f3af7edd2d2f,
        type: 3}
      propertyPath: m_LocalEulerAnglesHint.x
      value: 0
      objectReference: {fileID: 0}
    - target: {fileID: 3344551030493890026, guid: 9ad983a5a3ddcf446a33f3af7edd2d2f,
        type: 3}
      propertyPath: m_LocalEulerAnglesHint.y
      value: 0
      objectReference: {fileID: 0}
    - target: {fileID: 3344551030493890026, guid: 9ad983a5a3ddcf446a33f3af7edd2d2f,
        type: 3}
      propertyPath: m_LocalEulerAnglesHint.z
      value: 0
      objectReference: {fileID: 0}
    m_RemovedComponents: []
  m_SourcePrefab: {fileID: 100100000, guid: 9ad983a5a3ddcf446a33f3af7edd2d2f, type: 3}
--- !u!4 &7846232695545683299 stripped
Transform:
  m_CorrespondingSourceObject: {fileID: 3344551030493890026, guid: 9ad983a5a3ddcf446a33f3af7edd2d2f,
    type: 3}
  m_PrefabInstance: {fileID: 4794451659794094217}
  m_PrefabAsset: {fileID: 0}
