%YAML 1.1
%TAG !u! tag:unity3d.com,2011:
--- !u!74 &7400000
AnimationClip:
  m_ObjectHideFlags: 0
  m_CorrespondingSourceObject: {fileID: 0}
  m_PrefabInstance: {fileID: 0}
  m_PrefabAsset: {fileID: 0}
  m_Name: Left_Hide_Tadder
  serializedVersion: 6
  m_Legacy: 0
  m_Compressed: 0
  m_UseHighQualityCurve: 1
  m_RotationCurves: []
  m_CompressedRotationCurves: []
  m_EulerCurves: []
  m_PositionCurves: []
  m_ScaleCurves: []
  m_FloatCurves: []
  m_PPtrCurves:
  - curve:
    - time: 0
      value: {fileID: 21300000, guid: 6ef3f0299b1d18f438bec775beafee57, type: 3}
    - time: 0.11666667
      value: {fileID: 21300000, guid: eb6246cf40758b44dbab819ec517cb55, type: 3}
    - time: 0.21666667
      value: {fileID: 21300000, guid: 2f15e8116721ad744a482bdc251a203d, type: 3}
    - time: 0.33333334
      value: {fileID: 21300000, guid: dfcba7ac82c2592468fe742edb79a47e, type: 3}
    - time: 0.45
      value: {fileID: 21300000, guid: 8cc4e1e5661094a4f8755996b0ab0db0, type: 3}
    - time: 0.55
      value: {fileID: 21300000, guid: 3044e1d33fe8b6242a2a44cc6826ab12, type: 3}
    - time: 0.6666667
      value: {fileID: 21300000, guid: 94234cc9129a612429bfa2f36c7b227e, type: 3}
    - time: 0.78333336
      value: {fileID: 21300000, guid: 8ef94b60927cc1645a8732a54d058f32, type: 3}
    - time: 0.8833333
      value: {fileID: 21300000, guid: 5a7cfc3c600ca5b4b9d1c1fab0861912, type: 3}
    - time: 1
      value: {fileID: 21300000, guid: fc1bab0c7686bc44d92ce459211a4d27, type: 3}
    attribute: m_Sprite
    path: 
    classID: 212
    script: {fileID: 0}
  m_SampleRate: 60
  m_WrapMode: 0
  m_Bounds:
    m_Center: {x: 0, y: 0, z: 0}
    m_Extent: {x: 0, y: 0, z: 0}
  m_ClipBindingConstant:
    genericBindings:
    - serializedVersion: 2
      path: 0
      attribute: 0
      script: {fileID: 0}
      typeID: 212
      customType: 23
      isPPtrCurve: 1
    pptrCurveMapping:
    - {fileID: 21300000, guid: 6ef3f0299b1d18f438bec775beafee57, type: 3}
    - {fileID: 21300000, guid: eb6246cf40758b44dbab819ec517cb55, type: 3}
    - {fileID: 21300000, guid: 2f15e8116721ad744a482bdc251a203d, type: 3}
    - {fileID: 21300000, guid: dfcba7ac82c2592468fe742edb79a47e, type: 3}
    - {fileID: 21300000, guid: 8cc4e1e5661094a4f8755996b0ab0db0, type: 3}
    - {fileID: 21300000, guid: 3044e1d33fe8b6242a2a44cc6826ab12, type: 3}
    - {fileID: 21300000, guid: 94234cc9129a612429bfa2f36c7b227e, type: 3}
    - {fileID: 21300000, guid: 8ef94b60927cc1645a8732a54d058f32, type: 3}
    - {fileID: 21300000, guid: 5a7cfc3c600ca5b4b9d1c1fab0861912, type: 3}
    - {fileID: 21300000, guid: fc1bab0c7686bc44d92ce459211a4d27, type: 3}
  m_AnimationClipSettings:
    serializedVersion: 2
    m_AdditiveReferencePoseClip: {fileID: 0}
    m_AdditiveReferencePoseTime: 0
    m_StartTime: 0
    m_StopTime: 1.0166667
    m_OrientationOffsetY: 0
    m_Level: 0
    m_CycleOffset: 0
    m_HasAdditiveReferencePose: 0
    m_LoopTime: 1
    m_LoopBlend: 0
    m_LoopBlendOrientation: 0
    m_LoopBlendPositionY: 0
    m_LoopBlendPositionXZ: 0
    m_KeepOriginalOrientation: 0
    m_KeepOriginalPositionY: 1
    m_KeepOriginalPositionXZ: 0
    m_HeightFromFeet: 0
    m_Mirror: 0
  m_EditorCurves: []
  m_EulerEditorCurves: []
  m_HasGenericRootTransform: 0
  m_HasMotionFloatCurves: 0
  m_Events: []
